…
### repeat on historical data


```r
hist_data <- "https://projects.fivethirtyeight.com/nfl-api/nfl_elo.csv"
hdt <- fread(hist_data)

hdt %>%
  group_by(season) %>%
  summarise(sum(is.na(qbelo_prob1))) # begins in 1950
```

```
## # A tibble: 102 × 2
##    season `sum(is.na(qbelo_prob1))`
##     <int>                     <int>
##  1   1920                        90
##  2   1921                        66
##  3   1922                        74
##  4   1923                        88
##  5   1924                        80
##  6   1925                       104
##  7   1926                       116
##  8   1927                        72
##  9   1928                        56
## 10   1929                        70
## # … with 92 more rows
```
…
